{
    "pagination": {
        "next": "http://sandbox.cowrywise.com/api/v1/transactions?limit=20&offset=20",
        "previous": null,
        "count": 30
    },
    "data": [
        {
            "owner_id": "bbbbc4c76bbbb2e498bbbba34d25fa1f",
            "owner_name": "User One",
            "owner_email": "sample1@gmail.com",
            "source_asset": "Wallet Asset",
            "destination_asset": "Afrinvest Plutus Fund",
            "amount": 20000.0,
            "date": "2019-05-11T02:11:47.908482Z",
            "transaction_status": "Processed"
        },
        {
            "owner_id": "87bbbb38627246f58bbbb04e4f3ebbbb",
            "owner_name": "User Two",
            "owner_email": "sample2@gmail.com",
            "source_asset": "Wallet Asset",
            "destination_asset": "301-days-OMO Bills-NGO6I0803227",
            "amount": 2000000.0,
            "date": "2019-05-22T17:37:13.569752Z",
            "transaction_status": "Processed"
        },
        {
            "owner_id": "6a8f9d8aebbbb77f866b20bbbbbbbb48",
            "owner_name": "User Three",
            "owner_email": "sample3@gmail.com",
            "source_asset": "Wallet Asset",
            "destination_asset": "301-days-OMO Bills-NGO6I0803227",
            "amount": 3500000.0,
            "date": "2019-05-31T13:32:10.222165Z",
            "transaction_status": "Processed"
        }
    ],
    "errors": null,
    "message": "Request successful",
    "status": "success"
}